{
    "menuGroupsItems": [
        {
            "group": "My Information",
            "items": [
                {"href": "#contact", "title": "Contact Preferences"},
                {"href": "#usernameEmailPassword", "title": "Username / Email / Password"}
            ]
        },
        {
            "group": "Manage Account",
            "items": [
                {"href": "#billing", "title": "Billing Information"},
                {"href": "#companyProfile", "title": "Company Profile"},
                {"href": "#transactionHistory", "title": "Transaction History"},
                {"href": "#paymentMethod", "title": "Payment Method"},
                {"href": "#portal", "title": "Portal"}
            ]
        },
        {
            "group": "Buy, Sell, Share",
            "items": [
                {"href": "#buyCredits", "title": "Buy Credits"},
                {"href": "#convertEarnings", "title": "Convert Earnings to Credits"},
                {"href": "#seller", "title": "Seller Information"},
                {"href": "#statistics", "title": "Statistics"}
            ]
        },
        {
            "group": "Change Plan",
            "items": [
                {"href": "#cancel", "title": "Request to Cancel"},
                {"href": "#hold", "title": "Account Hold"},
                {"href": "#plansPricing", "title": "Plans &amp; Pricing"}
            ]
        },
        {
            "group": "Members",
            "items": [
                {"href": "#members", "title": "Account Members"}
            ]
        }
    ]
}
