{
  "assets":["b7e1a58c041a4381a643a51da68a097c"],
  "children":[{
    "assetID":"b7e1a58c041a4381a643a51da68a097c",
    "className":"Drawing",
    "customAnchors":[{
      "customModifier":"hide",
      "key":"set;visible;DE793B41-5D49-C9C3-E1C0-A95D9C185E6C",
      "kind":"setter",
      "uid":"DE793B41-5D49-C9C3-E1C0-A95D9C185E6C"
    },{
      "customModifier":"show",
      "key":"set;visible;4F81C5BC-7AF3-D4CE-CA62-A95D9C189E3B",
      "kind":"setter",
      "uid":"4F81C5BC-7AF3-D4CE-CA62-A95D9C189E3B"
    },{
      "condition":null,
      "key":"trigger;droppedOn;E7A4C248-791C-4F29-320C-A95D9C181EAD",
      "kind":"trigger",
      "uid":"E7A4C248-791C-4F29-320C-A95D9C181EAD"
    },{
      "condition":null,
      "key":"trigger;collidingWith;D66BFDC3-574B-C3A5-D27F-A95D9C189CB0",
      "kind":"trigger",
      "uid":"D66BFDC3-574B-C3A5-D27F-A95D9C189CB0"
    }],
    "inletKeys":{

    },
    "inspectorVisible":["scale","shadowLength","movable","height","layer","width","glowLength","alpha","x","hideOnRun","cloakOnRun","visible","y","maintainAspect","rotation","anchorPoint"],
    "mcVisible":["rollOver"]
  }],
  "edgeAnchors":[],
  "gadgets":["7a797108e0104fe9937236e26b91aaa5"],
  "initialValues":{
    "anchorValues":{
      "set;visible;04BA600A-7B14-C115-2ACD-A96EC172AAD0":{
        "inValue":true,
        "keyPress":"",
        "objectTransition":"none",
        "transTweenType":"linear",
        "transitionSecs":0,
        "tweenDelay":0,
        "tweenTime":0,
        "tweenType":"linear"
      },
      "set;visible;D5CC7301-D764-E27D-5BBF-A96EC172B49E":{
        "inValue":false,
        "keyPress":"",
        "objectTransition":"none",
        "transTweenType":"linear",
        "transitionSecs":0,
        "tweenDelay":0,
        "tweenTime":0,
        "tweenType":"linear"
      },
      "trigger;collidingWith;9386E528-7A2C-8467-4478-A96EC172742E":{
        "condition":null
      },
      "trigger;droppedOn;F2CADEFF-DFDB-A4D9-B1E2-A96EC171E923":{
        "condition":null
      }
    },
    "children":[{
      "anchorValues":{
        "set;visible;4F81C5BC-7AF3-D4CE-CA62-A95D9C189E3B":{
          "inValue":true,
          "keyPress":"",
          "objectTransition":"none",
          "transTweenType":"linear",
          "transitionSecs":0,
          "tweenDelay":0,
          "tweenTime":0,
          "tweenType":"linear"
        },
        "set;visible;DE793B41-5D49-C9C3-E1C0-A95D9C185E6C":{
          "inValue":false,
          "keyPress":"",
          "objectTransition":"none",
          "transTweenType":"linear",
          "transitionSecs":0,
          "tweenDelay":0,
          "tweenTime":0,
          "tweenType":"linear"
        },
        "trigger;collidingWith;D66BFDC3-574B-C3A5-D27F-A95D9C189CB0":{
          "condition":null
        },
        "trigger;droppedOn;E7A4C248-791C-4F29-320C-A95D9C181EAD":{
          "condition":null
        }
      },
      "values":{
        "acceptIntoOutOfArena":true,
        "alignAreaHorz":"",
        "alignAreaVert":"",
        "alpha":100,
        "anchorPoint":{
          "length":0.7071067811865476,
          "x":0.5,
          "y":0.5
        },
        "asset":{
          "assetID":"b7e1a58c041a4381a643a51da68a097c",
          "mimeType":"application/octet-stream",
          "name":"Drawing",
          "type":"Asset"
        },
        "authorNotes":"",
        "blendMode":"normal",
        "blur":0,
        "cloakOnRun":false,
        "cloakedNow":false,
        "colorSaturation":100,
        "enabled":true,
        "glowColor":16776960,
        "glowInner":false,
        "glowLength":0,
        "glowStrength":2,
        "groupID":null,
        "height":345.85755653381347,
        "hideOnRun":false,
        "inertial":false,
        "layer":0,
        "locked":false,
        "maintainAspect":true,
        "messageCenter":true,
        "messageCenterLocked":false,
        "messageCenterRelative":false,
        "messageCenterRepositioned":false,
        "movable":false,
        "parent":{
          "id":[],
          "type":"AbstractObjectReference"
        },
        "pathMaximum":100,
        "pathMinimum":0,
        "pathOn":true,
        "pathPercent":0,
        "pathValue":0,
        "putBackSecs":0,
        "rawRotation":0,
        "reflection":false,
        "resizeImage":"native",
        "runtimeRotation":false,
        "scale":100,
        "shadowAlpha":80,
        "shadowAngle":45,
        "shadowBlur":5,
        "shadowColor":0,
        "shadowLength":0,
        "shadowRollOverLength":0,
        "snap":true,
        "snapTo":null,
        "title":"RCW_ColorPalette",
        "titleChangedByAuthor":true,
        "visible":true,
        "width":44.620086801542094,
        "x":22.300000000000068,
        "xMessageCenter":0,
        "y":172.9,
        "yMessageCenter":0,
        "zIndex":0
      }
    }],
    "values":{
      "acceptIntoOutOfArena":true,
      "alignAreaHorz":"",
      "alignAreaVert":"",
      "alpha":100,
      "anchorPoint":{
        "length":0.7071067811865476,
        "x":0.5,
        "y":0.5
      },
      "authorNotes":"",
      "blendMode":"normal",
      "blur":0,
      "cloakOnRun":false,
      "cloakedNow":false,
      "colorSaturation":100,
      "enabled":true,
      "glowColor":16776960,
      "glowInner":false,
      "glowLength":0,
      "glowStrength":2,
      "groupID":null,
      "height":345.85,
      "hideOnRun":false,
      "inertial":false,
      "locked":false,
      "maintainAspect":false,
      "messageCenter":true,
      "messageCenterLocked":false,
      "messageCenterRelative":false,
      "messageCenterRepositioned":true,
      "movable":false,
      "parent":{
        "id":"068501FB-19C9-1A55-67C4-A4E111986BCC",
        "type":"AbstractObjectReference"
      },
      "pathOn":true,
      "putBackSecs":0,
      "reflection":false,
      "runtimeRotation":false,
      "shadowAlpha":80,
      "shadowAngle":45,
      "shadowBlur":5,
      "shadowColor":0,
      "shadowLength":0,
      "shadowRollOverLength":0,
      "title":"RCW Color Palette",
      "titleChangedByAuthor":false,
      "viewBox":{
        "bottom":345.85,
        "bottomRight":{
          "length":348.71389777294513,
          "x":44.6,
          "y":345.85
        },
        "height":345.85,
        "left":0,
        "right":44.6,
        "size":{
          "length":348.71389777294513,
          "x":44.6,
          "y":345.85
        },
        "top":0,
        "topLeft":{
          "length":0,
          "x":0,
          "y":0
        },
        "width":44.6,
        "x":0,
        "y":0
      },
      "visible":true,
      "width":44.6,
      "xMessageCenter":-53.099999999999994,
      "yMessageCenter":419,
      "zIndex":9
    }
  },
  "scaledHeight":345.85,
  "scaledWidth":44.6,
  "watermarkPosition":null,
  "wiring":[]
}