{
  "anchorValues":{

  },
  "children":[{
    "anchorValues":{
      "set;visible;0B0F16BA-4309-F0E3-ED42-3DE465AA339F":{
        "inValue":true,
        "keyPress":"",
        "objectTransition":"none",
        "transTweenType":"linear",
        "transitionSecs":0,
        "tweenDelay":0,
        "tweenTime":0,
        "tweenType":"linear"
      },
      "set;visible;726ACDE5-7C93-35C5-7D7E-3DE465AB99B6":{
        "inValue":false,
        "keyPress":"",
        "objectTransition":"none",
        "transTweenType":"linear",
        "transitionSecs":0,
        "tweenDelay":0,
        "tweenTime":0,
        "tweenType":"linear"
      },
      "trigger;collidingWith;A615DDFA-2B10-7465-C6A9-3DE465AB63E0":{
        "condition":null
      },
      "trigger;droppedOn;410580AE-172A-DE16-E644-3DE465ABD659":{
        "condition":null
      }
    },
    "values":{
      "acceptIntoOutOfArena":true,
      "alignAreaHorz":"",
      "alignAreaVert":"",
      "alpha":100,
      "anchorPoint":{
        "length":0.7071067811865476,
        "x":0.5,
        "y":0.5
      },
      "authorNotes":"",
      "blendMode":"normal",
      "blur":0,
      "className":"Oval",
      "cloakOnRun":false,
      "cloakedNow":false,
      "colorSaturation":100,
      "enabled":true,
      "fillAlpha":100,
      "fillSpec":{
        "angle":0,
        "colors":["#d6e8fa","#47739c"],
        "linear":false,
        "type":"Gradient Fill",
        "xOffset":0,
        "yOffset":0
      },
      "glowColor":16776960,
      "glowInner":false,
      "glowLength":0,
      "glowStrength":2,
      "groupID":null,
      "height":51.8125,
      "hideOnRun":false,
      "inertial":false,
      "layer":0,
      "lineAlpha":100,
      "lineColor":0,
      "lineThickness":0,
      "locked":false,
      "maintainAspect":false,
      "messageCenter":true,
      "messageCenterLocked":false,
      "messageCenterRelative":false,
      "messageCenterRepositioned":false,
      "movable":false,
      "parent":{
        "id":[],
        "type":"AbstractObjectReference"
      },
      "pathMaximum":100,
      "pathMinimum":0,
      "pathOn":true,
      "pathValue":0,
      "putBackSecs":0,
      "rawRotation":0,
      "reflection":false,
      "resumeCloaked":false,
      "resumeVisible":true,
      "runtimeRotation":false,
      "scale":100,
      "serializedLocation":"0",
      "shadowAlpha":80,
      "shadowAngle":45,
      "shadowBlur":5,
      "shadowColor":0,
      "shadowLength":0,
      "shadowRollOverLength":0,
      "snap":true,
      "snapTo":null,
      "title":"Oval",
      "titleChangedByAuthor":false,
      "visible":true,
      "width":61.5234375,
      "x":105.65,
      "xMessageCenter":0,
      "y":135.8,
      "yMessageCenter":0,
      "zIndex":0
    }
  }],
  "values":{
    "className":"EventPage",
    "groupID":null,
    "hadChildren":true,
    "height":500,
    "isForeground":false,
    "locked":false,
    "messageCenter":true,
    "messageCenterLocked":false,
    "messageCenterRelative":false,
    "messageCenterRepositioned":false,
    "resumeCloaked":false,
    "resumeVisible":true,
    "serializedLocation":null,
    "title":"Event 1",
    "titleChangedByAuthor":false,
    "viewBox":null,
    "visible":true,
    "width":800,
    "xMessageCenter":400,
    "yMessageCenter":500
  }
}