<?xml version="1.0" encoding="UTF-8"?>
<svg width="1000" height="1000" xmlns="http://www.w3.org/2000/svg">
 <g>
  <title>Layer 1</title>
  <rect fill="url(#svg_3)" stroke="#000000" stroke-width="0" x="0" y="0" width="100%" height="100%" id="background"/>
 </g>
 <defs>
  <linearGradient id="svg_3" x1="0" y1="0" x2="0" y2="0.5">
   <stop offset="0" stop-color="#ffffff"/>
   <stop offset="1" stop-color="#a5a5a5"/>
  </linearGradient>
 </defs>
</svg>